<svg version="1.1" id="heart" xmlns="http://www.w3.org/2000/svg" xmlns:xlink="http://www.w3.org/1999/xlink" x="0px" y="0px"
	 viewBox="0 0 473.8 408.6" style="enable-background:new 0 0 473.8 408.6;" xml:space="preserve">
<path d="M404.6,16.6C385.4,6.1,363.5,0,340,0c-41.5,0-78.5,18.9-103,48.5C212.3,18.9,175.3,0,133.8,0c-23.3,0-45.3,6.1-64.5,16.6
	C27.9,39.5,0,83.4,0,133.9c0,14.4,2.4,28.3,6.6,41.2C29.6,278.4,237,408.6,237,408.6s207.2-130.2,230.2-233.5
	c4.3-12.9,6.6-26.8,6.6-41.2C473.8,83.4,445.9,39.6,404.6,16.6z"/>
</svg>
